<svg xmlns="http://www.w3.org/2000/svg" xmlns:xlink="http://www.w3.org/1999/xlink" viewBox="0 0 1920 1080">
  <defs>
    <style>
      .cls-1 {
        clip-path: url(#clip-Huisstijl-wsdev);
      }

      .cls-2 {
        font-size: 100px;
      }

      .cls-2, .cls-3 {
        font-family: Lato-Regular, Lato;
      }

      .cls-3, .cls-7 {
        fill: #fa6900;
      }

      .cls-3 {
        font-size: 99px;
        letter-spacing: 0.037em;
      }

      .cls-4 {
        font-size: 50px;
        font-family: Lato-Bold, Lato;
        font-weight: 700;
      }

      .cls-5 {
        font-size: 35px;
      }

      .cls-12, .cls-6 {
        fill: #fff;
      }

      .cls-8 {
        fill: #5a5a5a;
      }

      .cls-9 {
        fill: none;
        stroke: #707070;
        stroke-width: 3px;
      }

      .cls-10, .cls-11 {
        stroke: none;
      }

      .cls-11 {
        fill: #707070;
      }
    </style>
    <clipPath id="clip-Huisstijl-wsdev">
      <rect width="1920" height="1080"/>
    </clipPath>
  </defs>
  <g id="Huisstijl-wsdev" class="cls-1">
    <rect class="cls-12" width="1920" height="1080"/>
    <text id="Huisstijlboek_van" data-name="Huisstijlboek van" class="cls-2" transform="translate(51 137)"><tspan x="0" y="0">Huisstijlboek van</tspan></text>
    <g id="tekst_logo" transform="translate(531.314 -1057.445)">
      <g id="Group_2" data-name="Group 2" transform="translate(279.72 1096.738)">
        <g id="Group_1" data-name="Group 1">
          <text id="WSDEV" class="cls-3" transform="translate(0 98)"><tspan x="0" y="0">WSDEV</tspan></text>
        </g>
      </g>
    </g>
    <text id="Kleuren_WSDEV_Oranje_HEX:_FA6900_RGB:_250_105_0_" data-name="Kleuren

WSDEV Oranje

HEX: #FA6900
RGB: 250, 105, 0)

" class="cls-4" transform="translate(60 238)"><tspan x="0" y="49">Kleuren</tspan><tspan x="0" y="109"></tspan><tspan class="cls-5"><tspan x="0" y="155">WSDEV Oranje</tspan><tspan x="0" y="197"></tspan><tspan x="0" y="239">HEX: #FA6900</tspan><tspan x="0" y="281">RGB: 250, 105, 0)</tspan></tspan></text>
    <text id="Kleuren_WSDEV_Grijs_HEX:_5A5A5A_RGB_90.90.90" data-name="Kleuren

WSDEV Grijs

HEX: #5A5A5A
RGB 90.90.90" class="cls-4" transform="translate(400 238)"><tspan x="0" y="49">Kleuren</tspan><tspan x="0" y="109"></tspan><tspan class="cls-5"><tspan x="0" y="155">WSDEV Grijs</tspan><tspan x="0" y="197"></tspan><tspan x="0" y="239">HEX: #5A5A5A</tspan><tspan x="0" y="281">RGB 90.90.90</tspan></tspan></text>
    <text id="Kleuren_WSDEV_Wit_HEX:_FFFFFF_RGB_255.255.255" data-name="Kleuren

WSDEV Wit

HEX: #FFFFFF
RGB 255.255.255" class="cls-4" transform="translate(740 238)"><tspan x="0" y="49">Kleuren</tspan><tspan x="0" y="109"></tspan><tspan class="cls-5"><tspan x="0" y="155">WSDEV Wit</tspan><tspan x="0" y="197"></tspan><tspan x="0" y="239">HEX: #FFFFFF</tspan><tspan x="0" y="281">RGB 255.255.255</tspan></tspan></text>
    <text id="Typografie_Lato_Lato_regular_Lato_Bold_Lato_Black_Lato_Italic_Lato_light_Hairline_Italic_" data-name="Typografie

Lato 
Lato regular                     
Lato Bold           
Lato Black         
Lato Italic
Lato light
Hairline Italic
" class="cls-4" transform="translate(1172 238)"><tspan x="0" y="49">Typografie</tspan><tspan x="0" y="109"></tspan><tspan x="0" y="169">Lato </tspan><tspan x="0" y="229" xml:space="preserve">Lato regular                     </tspan><tspan x="0" y="289" xml:space="preserve">Lato Bold           </tspan><tspan x="0" y="349" xml:space="preserve">Lato Black         </tspan><tspan x="0" y="409">Lato Italic</tspan><tspan x="0" y="469">Lato light</tspan><tspan x="0" y="529">Hairline Italic</tspan></text>
    <text id="_Normaal_Sterk_Extra_sterk_Schuin_Dun_Extra_dun_" data-name="

                     
Normaal
Sterk         
Extra sterk         
Schuin
Dun
Extra dun
" class="cls-4" transform="translate(1521 238)"><tspan x="0" y="49"></tspan><tspan x="0" y="109"></tspan><tspan x="0" y="169" xml:space="preserve">                     </tspan><tspan x="0" y="229">Normaal</tspan><tspan x="0" y="289" xml:space="preserve">Sterk         </tspan><tspan x="0" y="349" xml:space="preserve">Extra sterk         </tspan><tspan x="0" y="409">Schuin</tspan><tspan x="0" y="469">Dun</tspan><tspan x="0" y="529">Extra dun</tspan></text>
    <g id="Path_2" data-name="Path 2" class="cls-6" transform="translate(740 587)">
      <path class="cls-10" d="M 326.5 96.5 L 0.5 96.5 L 0.5 0.5 L 326.5 0.5 L 326.5 96.5 Z"/>
      <path class="cls-11" d="M 1 1 L 1 96 L 326 96 L 326 1 L 1 1 M 0 0 L 327 0 L 327 97 L 0 97 L 0 0 Z"/>
    </g>
    <rect id="Rectangle_3" data-name="Rectangle 3" class="cls-7" width="327" height="97" transform="translate(60 587)"/>
    <path id="Path_1" data-name="Path 1" class="cls-8" d="M0,0H327V97H0Z" transform="translate(400 587)"/>
    <line id="Line_2" data-name="Line 2" class="cls-9" x2="203" transform="translate(60.5 304.5)"/>
    <line id="Line_3" data-name="Line 3" class="cls-9" x2="203" transform="translate(400.5 304.5)"/>
    <line id="Line_4" data-name="Line 4" class="cls-9" x2="203" transform="translate(740.5 304.5)"/>
    <line id="Line_5" data-name="Line 5" class="cls-9" x2="203" transform="translate(740.5 304.5)"/>
    <line id="Line_6" data-name="Line 6" class="cls-9" x2="327" transform="translate(1172.5 304.5)"/>
  </g>
</svg>
